…
    ## `summarise()` has grouped output by 'county'. You can override using the
    ## `.groups` argument.

``` r
borough_rent
```

    ## # A tibble: 55 × 4
    ## # Groups:   county [5]
    ##    county  year zip_count avg_rent
    ##    <chr>  <dbl>     <int>    <dbl>
    ##  1 Bronx   2015       264    1760.
    ##  2 Bronx   2016       264    1520.
    ##  3 Bronx   2017       264    1544.
    ##  4 Bronx   2018       264    1639.
    ##  5 Bronx   2019       264    1706.
    ##  6 Bronx   2020       264    1811.
    ##  7 Bronx   2021       264    1858.
    ##  8 Bronx   2022       264    2054.
    ##  9 Bronx   2023       264    2285.
    ## 10 Bronx   2024       176    2497.
    ## # ℹ 45 more rows
…
